%YAML 1.1
%TAG !u! tag:unity3d.com,2011:
--- !u!74 &7400000
AnimationClip:
  m_ObjectHideFlags: 0
  m_PrefabParentObject: {fileID: 0}
  m_PrefabInternal: {fileID: 0}
  m_Name: ElfSurprised
  serializedVersion: 4
  m_AnimationType: 2
  m_Compressed: 0
  m_UseHighQualityCurve: 1
  m_RotationCurves: []
  m_CompressedRotationCurves: []
  m_PositionCurves: []
  m_ScaleCurves: []
  m_FloatCurves: []
  m_PPtrCurves:
  - curve:
    - time: 0
      value: {fileID: 21300000, guid: 31389d86fb1df2845849bf818ab0b24b, type: 3}
    - time: .0833333358
      value: {fileID: 21300000, guid: 6f4faca9624f3ca49b548eb827380be7, type: 3}
    - time: .166666672
      value: {fileID: 21300000, guid: 7802d051a8a1bdb469d43cba8f584da2, type: 3}
    - time: .25
      value: {fileID: 21300000, guid: ffb11e3cd1ba5a24a9291a12f93a6064, type: 3}
    - time: .333333343
      value: {fileID: 21300000, guid: 56d566369bcdc0f4ab6c358925712d13, type: 3}
    - time: .416666657
      value: {fileID: 21300000, guid: d93091b05d0451b4ba20653204b53f38, type: 3}
    attribute: m_Sprite
    path: 
    classID: 212
    script: {fileID: 0}
  m_SampleRate: 12
  m_WrapMode: 0
  m_Bounds:
    m_Center: {x: 0, y: 0, z: 0}
    m_Extent: {x: 0, y: 0, z: 0}
  m_AnimationClipSettings:
    serializedVersion: 2
    m_StartTime: 0
    m_StopTime: .5
    m_OrientationOffsetY: 0
    m_Level: 0
    m_CycleOffset: 0
    m_LoopTime: 1
    m_LoopBlend: 0
    m_LoopBlendOrientation: 0
    m_LoopBlendPositionY: 0
    m_LoopBlendPositionXZ: 0
    m_KeepOriginalOrientation: 0
    m_KeepOriginalPositionY: 1
    m_KeepOriginalPositionXZ: 0
    m_HeightFromFeet: 0
    m_Mirror: 0
  m_EditorCurves: []
  m_EulerEditorCurves: []
  m_Events: []
