%YAML 1.1
%TAG !u! tag:unity3d.com,2011:
--- !u!74 &7400000
AnimationClip:
  m_ObjectHideFlags: 0
  m_PrefabParentObject: {fileID: 0}
  m_PrefabInternal: {fileID: 0}
  m_Name: NormalSupercthulhu
  serializedVersion: 4
  m_AnimationType: 2
  m_Compressed: 0
  m_UseHighQualityCurve: 1
  m_RotationCurves: []
  m_CompressedRotationCurves: []
  m_PositionCurves: []
  m_ScaleCurves: []
  m_FloatCurves: []
  m_PPtrCurves:
  - curve:
    - time: 0
      value: {fileID: 21300000, guid: 8b69fa3ef019c52419a763c68d8dbe61, type: 3}
    - time: .0833333358
      value: {fileID: 21300000, guid: 3f94b5c0bb84b2f4daf3754379396e54, type: 3}
    - time: .166666672
      value: {fileID: 21300000, guid: 2afe86ed3f252f84c946abf0e3b23a7b, type: 3}
    - time: .25
      value: {fileID: 21300000, guid: c26b151fadb972044af5d7da7cd8415d, type: 3}
    - time: .333333343
      value: {fileID: 21300000, guid: b35aeb47bbfcb054caeaed986e0ed11d, type: 3}
    - time: .416666657
      value: {fileID: 21300000, guid: 33b453beb297caf4e9524ce47134bc2e, type: 3}
    - time: .5
      value: {fileID: 21300000, guid: 92e3b73549846364b81c4f3b27e504a1, type: 3}
    - time: .583333313
      value: {fileID: 21300000, guid: aff01f3ca0410c241862e509d3472e49, type: 3}
    - time: .666666687
      value: {fileID: 21300000, guid: 4b96ff59a2b55b54eb6d9da6d720f164, type: 3}
    - time: .75
      value: {fileID: 21300000, guid: 61627f001890c524cb747236b7189be7, type: 3}
    attribute: m_Sprite
    path: 
    classID: 212
    script: {fileID: 0}
  m_SampleRate: 12
  m_WrapMode: 0
  m_Bounds:
    m_Center: {x: 0, y: 0, z: 0}
    m_Extent: {x: 0, y: 0, z: 0}
  m_ClipBindingConstant:
    genericBindings:
    - path: 0
      attribute: 0
      script: {fileID: 0}
      classID: 212
      customType: 23
      isPPtrCurve: 1
    pptrCurveMapping:
    - {fileID: 21300000, guid: 8b69fa3ef019c52419a763c68d8dbe61, type: 3}
    - {fileID: 21300000, guid: 3f94b5c0bb84b2f4daf3754379396e54, type: 3}
    - {fileID: 21300000, guid: 2afe86ed3f252f84c946abf0e3b23a7b, type: 3}
    - {fileID: 21300000, guid: c26b151fadb972044af5d7da7cd8415d, type: 3}
    - {fileID: 21300000, guid: b35aeb47bbfcb054caeaed986e0ed11d, type: 3}
    - {fileID: 21300000, guid: 33b453beb297caf4e9524ce47134bc2e, type: 3}
    - {fileID: 21300000, guid: 92e3b73549846364b81c4f3b27e504a1, type: 3}
    - {fileID: 21300000, guid: aff01f3ca0410c241862e509d3472e49, type: 3}
    - {fileID: 21300000, guid: 4b96ff59a2b55b54eb6d9da6d720f164, type: 3}
    - {fileID: 21300000, guid: 61627f001890c524cb747236b7189be7, type: 3}
  m_AnimationClipSettings:
    serializedVersion: 2
    m_StartTime: 0
    m_StopTime: .833333313
    m_OrientationOffsetY: 0
    m_Level: 0
    m_CycleOffset: 0
    m_LoopTime: 1
    m_LoopBlend: 0
    m_LoopBlendOrientation: 0
    m_LoopBlendPositionY: 0
    m_LoopBlendPositionXZ: 0
    m_KeepOriginalOrientation: 0
    m_KeepOriginalPositionY: 1
    m_KeepOriginalPositionXZ: 0
    m_HeightFromFeet: 0
    m_Mirror: 0
  m_EditorCurves: []
  m_EulerEditorCurves: []
  m_Events: []
