%YAML 1.1
%TAG !u! tag:unity3d.com,2011:
--- !u!74 &7400000
AnimationClip:
  m_ObjectHideFlags: 0
  m_PrefabParentObject: {fileID: 0}
  m_PrefabInternal: {fileID: 0}
  m_Name: Costumes
  serializedVersion: 4
  m_AnimationType: 2
  m_Compressed: 0
  m_UseHighQualityCurve: 1
  m_RotationCurves: []
  m_CompressedRotationCurves: []
  m_PositionCurves: []
  m_ScaleCurves: []
  m_FloatCurves: []
  m_PPtrCurves:
  - curve:
    - time: 0
      value: {fileID: 21300000, guid: ef8338a93e9569d41ac5428ed9410d41, type: 3}
    - time: .125
      value: {fileID: 21300000, guid: 0458c693b7bf3154a9e385cf65ccd8cd, type: 3}
    - time: .25
      value: {fileID: 21300000, guid: 21f5ba0d31fa80c47803cd3a7f00a11c, type: 3}
    - time: .375
      value: {fileID: 21300000, guid: 6d8e15a5921c7f44b8e2aca08c782b7b, type: 3}
    - time: .5
      value: {fileID: 21300000, guid: e15ac36b64107fb43bd45436b3810173, type: 3}
    - time: .625
      value: {fileID: 21300000, guid: 6d8e15a5921c7f44b8e2aca08c782b7b, type: 3}
    - time: .75
      value: {fileID: 21300000, guid: 21f5ba0d31fa80c47803cd3a7f00a11c, type: 3}
    - time: .875
      value: {fileID: 21300000, guid: 0458c693b7bf3154a9e385cf65ccd8cd, type: 3}
    - time: 1
      value: {fileID: 21300000, guid: ef8338a93e9569d41ac5428ed9410d41, type: 3}
    attribute: m_Sprite
    path: 
    classID: 212
    script: {fileID: 0}
  m_SampleRate: 8
  m_WrapMode: 0
  m_Bounds:
    m_Center: {x: 0, y: 0, z: 0}
    m_Extent: {x: 0, y: 0, z: 0}
  m_AnimationClipSettings:
    serializedVersion: 2
    m_StartTime: 0
    m_StopTime: 1.125
    m_OrientationOffsetY: 0
    m_Level: 0
    m_CycleOffset: 0
    m_LoopTime: 1
    m_LoopBlend: 0
    m_LoopBlendOrientation: 0
    m_LoopBlendPositionY: 0
    m_LoopBlendPositionXZ: 0
    m_KeepOriginalOrientation: 0
    m_KeepOriginalPositionY: 1
    m_KeepOriginalPositionXZ: 0
    m_HeightFromFeet: 0
    m_Mirror: 0
  m_EditorCurves: []
  m_EulerEditorCurves: []
  m_Events: []
