%YAML 1.1
%TAG !u! tag:unity3d.com,2011:
--- !u!74 &7400000
AnimationClip:
  m_ObjectHideFlags: 0
  m_PrefabParentObject: {fileID: 0}
  m_PrefabInternal: {fileID: 0}
  m_Name: AtaackLink
  serializedVersion: 4
  m_AnimationType: 2
  m_Compressed: 0
  m_UseHighQualityCurve: 1
  m_RotationCurves: []
  m_CompressedRotationCurves: []
  m_PositionCurves:
  - curve:
      serializedVersion: 2
      m_Curve:
      - time: 0
        value: {x: 3.05999994, y: .560000002, z: 0}
        inSlope: {x: 2.39999747, y: 0, z: 0}
        outSlope: {x: 2.39999747, y: 0, z: 0}
        tangentMode: 0
      - time: .0166666675
        value: {x: 3.0999999, y: .560000002, z: 0}
        inSlope: {x: 193.199997, y: 20.6999989, z: 0}
        outSlope: {x: 193.199997, y: 20.6999989, z: 0}
        tangentMode: 0
      - time: .0333333351
        value: {x: 9.5, y: 1.25, z: 0}
        inSlope: {x: 192, y: 20.6999989, z: 0}
        outSlope: {x: 192, y: 20.6999989, z: 0}
        tangentMode: 0
      - time: .0500000007
        value: {x: 9.5, y: 1.25, z: 0}
        inSlope: {x: 22.1999893, y: 1.79999804, z: 0}
        outSlope: {x: 22.1999893, y: 1.79999804, z: 0}
        tangentMode: 0
      - time: .0666666701
        value: {x: 10.2399998, y: 1.30999994, z: 0}
        inSlope: {x: 22.1999893, y: 1.79999804, z: 0}
        outSlope: {x: 22.1999893, y: 1.79999804, z: 0}
        tangentMode: 5
      - time: .0833333358
        value: {x: 10.2399998, y: 1.30999994, z: 0}
        inSlope: {x: 3.90000367, y: -.599999487, z: 0}
        outSlope: {x: 3.90000367, y: -.599999487, z: 0}
        tangentMode: 0
      - time: .100000001
        value: {x: 10.3699999, y: 1.28999996, z: 0}
        inSlope: {x: 3.90000367, y: -.599999487, z: 0}
        outSlope: {x: 3.90000367, y: -.599999487, z: 0}
        tangentMode: 0
      - time: .116666667
        value: {x: 10.3699999, y: 1.28999996, z: 0}
        inSlope: {x: 0, y: 0, z: 0}
        outSlope: {x: 0, y: 0, z: 0}
        tangentMode: 3
      m_PreInfinity: 2
      m_PostInfinity: 2
    path: 
  m_ScaleCurves:
  - curve:
      serializedVersion: 2
      m_Curve:
      - time: 0
        value: {x: 1.53999996, y: 1.53999996, z: 1.76026845}
        inSlope: {x: 0, y: 0, z: 0}
        outSlope: {x: 0, y: 0, z: 0}
        tangentMode: 0
      - time: .0166666675
        value: {x: 1.53999996, y: 1.53999996, z: 1.76026845}
        inSlope: {x: 0, y: 0, z: 0}
        outSlope: {x: 0, y: 0, z: 0}
        tangentMode: 0
      m_PreInfinity: 2
      m_PostInfinity: 2
    path: 
  m_FloatCurves: []
  m_PPtrCurves:
  - curve:
    - time: 0
      value: {fileID: 21300000, guid: f1f59b256e7534042bc0f86d4649b920, type: 3}
    - time: .0166666675
      value: {fileID: 21300000, guid: f1f59b256e7534042bc0f86d4649b920, type: 3}
    - time: .0333333351
      value: {fileID: 21300000, guid: 41e8245218cc2e0478aafb3d1fd7e7dd, type: 3}
    - time: .0500000007
      value: {fileID: 21300000, guid: 41e8245218cc2e0478aafb3d1fd7e7dd, type: 3}
    - time: .0666666701
      value: {fileID: 21300000, guid: 60b176f742573af41bccaa80251e8a51, type: 3}
    - time: .0833333358
      value: {fileID: 21300000, guid: 60b176f742573af41bccaa80251e8a51, type: 3}
    - time: .100000001
      value: {fileID: 21300000, guid: 76ea733e572894943b73279fb2ec6584, type: 3}
    - time: .116666667
      value: {fileID: 21300000, guid: 76ea733e572894943b73279fb2ec6584, type: 3}
    attribute: m_Sprite
    path: 
    classID: 212
    script: {fileID: 0}
  m_SampleRate: 60
  m_WrapMode: 0
  m_Bounds:
    m_Center: {x: 0, y: 0, z: 0}
    m_Extent: {x: 0, y: 0, z: 0}
  m_ClipBindingConstant:
    genericBindings:
    - path: 0
      attribute: 1
      script: {fileID: 0}
      classID: 4
      customType: 0
      isPPtrCurve: 0
    - path: 0
      attribute: 0
      script: {fileID: 0}
      classID: 212
      customType: 23
      isPPtrCurve: 1
    - path: 0
      attribute: 3
      script: {fileID: 0}
      classID: 4
      customType: 0
      isPPtrCurve: 0
    pptrCurveMapping:
    - {fileID: 21300000, guid: f1f59b256e7534042bc0f86d4649b920, type: 3}
    - {fileID: 21300000, guid: f1f59b256e7534042bc0f86d4649b920, type: 3}
    - {fileID: 21300000, guid: 41e8245218cc2e0478aafb3d1fd7e7dd, type: 3}
    - {fileID: 21300000, guid: 41e8245218cc2e0478aafb3d1fd7e7dd, type: 3}
    - {fileID: 21300000, guid: 60b176f742573af41bccaa80251e8a51, type: 3}
    - {fileID: 21300000, guid: 60b176f742573af41bccaa80251e8a51, type: 3}
    - {fileID: 21300000, guid: 76ea733e572894943b73279fb2ec6584, type: 3}
    - {fileID: 21300000, guid: 76ea733e572894943b73279fb2ec6584, type: 3}
  m_AnimationClipSettings:
    serializedVersion: 2
    m_StartTime: 0
    m_StopTime: .13333334
    m_OrientationOffsetY: 0
    m_Level: 0
    m_CycleOffset: 0
    m_LoopTime: 1
    m_LoopBlend: 0
    m_LoopBlendOrientation: 0
    m_LoopBlendPositionY: 0
    m_LoopBlendPositionXZ: 0
    m_KeepOriginalOrientation: 0
    m_KeepOriginalPositionY: 1
    m_KeepOriginalPositionXZ: 0
    m_HeightFromFeet: 0
    m_Mirror: 0
  m_EditorCurves:
  - curve:
      serializedVersion: 2
      m_Curve:
      - time: 0
        value: 3.05999994
        inSlope: 2.39999747
        outSlope: 2.39999747
        tangentMode: 10
      - time: .0166666675
        value: 3.0999999
        inSlope: 193.199997
        outSlope: 193.199997
        tangentMode: 10
      - time: .0333333351
        value: 9.5
        inSlope: 192
        outSlope: 192
        tangentMode: 10
      - time: .0500000007
        value: 9.5
        inSlope: 22.1999893
        outSlope: 22.1999893
        tangentMode: 10
      - time: .0666666701
        value: 10.2399998
        inSlope: 22.1999893
        outSlope: 22.1999893
        tangentMode: 10
      - time: .0833333358
        value: 10.2399998
        inSlope: 3.90000367
        outSlope: 3.90000367
        tangentMode: 10
      - time: .100000001
        value: 10.3699999
        inSlope: 3.90000367
        outSlope: 3.90000367
        tangentMode: 10
      - time: .116666667
        value: 10.3699999
        inSlope: 0
        outSlope: 0
        tangentMode: 10
      m_PreInfinity: 2
      m_PostInfinity: 2
    attribute: m_LocalPosition.x
    path: 
    classID: 4
    script: {fileID: 0}
  - curve:
      serializedVersion: 2
      m_Curve:
      - time: 0
        value: .560000002
        inSlope: 0
        outSlope: 0
        tangentMode: 10
      - time: .0166666675
        value: .560000002
        inSlope: 20.6999989
        outSlope: 20.6999989
        tangentMode: 10
      - time: .0333333351
        value: 1.25
        inSlope: 20.6999989
        outSlope: 20.6999989
        tangentMode: 10
      - time: .0500000007
        value: 1.25
        inSlope: 1.79999804
        outSlope: 1.79999804
        tangentMode: 10
      - time: .0666666701
        value: 1.30999994
        inSlope: 1.79999804
        outSlope: 1.79999804
        tangentMode: 10
      - time: .0833333358
        value: 1.30999994
        inSlope: -.599999487
        outSlope: -.599999487
        tangentMode: 10
      - time: .100000001
        value: 1.28999996
        inSlope: -.599999487
        outSlope: -.599999487
        tangentMode: 10
      - time: .116666667
        value: 1.28999996
        inSlope: 0
        outSlope: 0
        tangentMode: 10
      m_PreInfinity: 2
      m_PostInfinity: 2
    attribute: m_LocalPosition.y
    path: 
    classID: 4
    script: {fileID: 0}
  - curve:
      serializedVersion: 2
      m_Curve:
      - time: 0
        value: 0
        inSlope: 0
        outSlope: 0
        tangentMode: 10
      - time: .0166666675
        value: 0
        inSlope: 0
        outSlope: 0
        tangentMode: 10
      - time: .0333333351
        value: 0
        inSlope: 0
        outSlope: 0
        tangentMode: 10
      - time: .0500000007
        value: 0
        inSlope: 0
        outSlope: 0
        tangentMode: 10
      - time: .0666666701
        value: 0
        inSlope: 0
        outSlope: 0
        tangentMode: 10
      - time: .0833333358
        value: 0
        inSlope: 0
        outSlope: 0
        tangentMode: 10
      - time: .100000001
        value: 0
        inSlope: 0
        outSlope: 0
        tangentMode: 10
      - time: .116666667
        value: 0
        inSlope: 0
        outSlope: 0
        tangentMode: 10
      m_PreInfinity: 2
      m_PostInfinity: 2
    attribute: m_LocalPosition.z
    path: 
    classID: 4
    script: {fileID: 0}
  - curve:
      serializedVersion: 2
      m_Curve:
      - time: 0
        value: 1.53999996
        inSlope: 0
        outSlope: 0
        tangentMode: 10
      - time: .0166666675
        value: 1.53999996
        inSlope: 0
        outSlope: 0
        tangentMode: 10
      m_PreInfinity: 2
      m_PostInfinity: 2
    attribute: m_LocalScale.x
    path: 
    classID: 4
    script: {fileID: 0}
  - curve:
      serializedVersion: 2
      m_Curve:
      - time: 0
        value: 1.53999996
        inSlope: 0
        outSlope: 0
        tangentMode: 10
      - time: .0166666675
        value: 1.53999996
        inSlope: 0
        outSlope: 0
        tangentMode: 10
      m_PreInfinity: 2
      m_PostInfinity: 2
    attribute: m_LocalScale.y
    path: 
    classID: 4
    script: {fileID: 0}
  - curve:
      serializedVersion: 2
      m_Curve:
      - time: 0
        value: 1.76026845
        inSlope: 0
        outSlope: 0
        tangentMode: 10
      - time: .0166666675
        value: 1.76026845
        inSlope: 0
        outSlope: 0
        tangentMode: 10
      m_PreInfinity: 2
      m_PostInfinity: 2
    attribute: m_LocalScale.z
    path: 
    classID: 4
    script: {fileID: 0}
  m_EulerEditorCurves: []
  m_Events: []
