%YAML 1.1
%TAG !u! tag:unity3d.com,2011:
--- !u!74 &7400000
AnimationClip:
  m_ObjectHideFlags: 0
  m_PrefabParentObject: {fileID: 0}
  m_PrefabInternal: {fileID: 0}
  m_Name: baleia2
  serializedVersion: 4
  m_AnimationType: 2
  m_Compressed: 0
  m_UseHighQualityCurve: 1
  m_RotationCurves: []
  m_CompressedRotationCurves: []
  m_PositionCurves:
  - curve:
      serializedVersion: 2
      m_Curve:
      - time: 0
        value: {x: 41.9420013, y: 2.32920003, z: 2.86999989}
        inSlope: {x: -.776925504, y: 0, z: 0}
        outSlope: {x: -.776925504, y: 0, z: 0}
        tangentMode: 1718485028
      - time: 105.383331
        value: {x: -39.9329987, y: 2.32920003, z: 2.86999989}
        inSlope: {x: -.388462752, y: 0, z: 0}
        outSlope: {x: -.388462752, y: 0, z: 0}
        tangentMode: 738445500
      - time: 129.816666
        value: {x: -39.9329987, y: 2.32920003, z: 2.86999989}
        inSlope: {x: 0, y: 0, z: 0}
        outSlope: {x: 0, y: 0, z: 0}
        tangentMode: 0
      m_PreInfinity: 2
      m_PostInfinity: 2
    path: 
  m_ScaleCurves: []
  m_FloatCurves: []
  m_PPtrCurves: []
  m_SampleRate: 60
  m_WrapMode: 0
  m_Bounds:
    m_Center: {x: 0, y: 0, z: 0}
    m_Extent: {x: 0, y: 0, z: 0}
  m_ClipBindingConstant:
    genericBindings:
    - path: 0
      attribute: 1
      script: {fileID: 0}
      classID: 4
      customType: 0
      isPPtrCurve: 0
    pptrCurveMapping: []
  m_AnimationClipSettings:
    serializedVersion: 2
    m_StartTime: 0
    m_StopTime: 129.816666
    m_OrientationOffsetY: 0
    m_Level: 0
    m_CycleOffset: 0
    m_LoopTime: 1
    m_LoopBlend: 0
    m_LoopBlendOrientation: 0
    m_LoopBlendPositionY: 0
    m_LoopBlendPositionXZ: 0
    m_KeepOriginalOrientation: 0
    m_KeepOriginalPositionY: 1
    m_KeepOriginalPositionXZ: 0
    m_HeightFromFeet: 0
    m_Mirror: 0
  m_EditorCurves:
  - curve:
      serializedVersion: 2
      m_Curve:
      - time: 0
        value: 41.9420013
        inSlope: -.776925504
        outSlope: -.776925504
        tangentMode: 10
      - time: 105.383331
        value: -39.9329987
        inSlope: -.388462752
        outSlope: -.388462752
        tangentMode: 10
      - time: 129.816666
        value: -39.9329987
        inSlope: 0
        outSlope: 0
        tangentMode: 10
      m_PreInfinity: 2
      m_PostInfinity: 2
    attribute: m_LocalPosition.x
    path: 
    classID: 4
    script: {fileID: 0}
  - curve:
      serializedVersion: 2
      m_Curve:
      - time: 0
        value: 2.32920003
        inSlope: 0
        outSlope: 0
        tangentMode: 10
      - time: 105.383331
        value: 2.32920003
        inSlope: 0
        outSlope: 0
        tangentMode: 10
      - time: 129.816666
        value: 2.32920003
        inSlope: 0
        outSlope: 0
        tangentMode: 10
      m_PreInfinity: 2
      m_PostInfinity: 2
    attribute: m_LocalPosition.y
    path: 
    classID: 4
    script: {fileID: 0}
  - curve:
      serializedVersion: 2
      m_Curve:
      - time: 0
        value: 2.86999989
        inSlope: 0
        outSlope: 0
        tangentMode: 10
      - time: 105.383331
        value: 2.86999989
        inSlope: 0
        outSlope: 0
        tangentMode: 10
      - time: 129.816666
        value: 2.86999989
        inSlope: 0
        outSlope: 0
        tangentMode: 10
      m_PreInfinity: 2
      m_PostInfinity: 2
    attribute: m_LocalPosition.z
    path: 
    classID: 4
    script: {fileID: 0}
  m_EulerEditorCurves: []
  m_Events: []
