%YAML 1.1
%TAG !u! tag:unity3d.com,2011:
--- !u!74 &7400000
AnimationClip:
  m_ObjectHideFlags: 0
  m_PrefabParentObject: {fileID: 0}
  m_PrefabInternal: {fileID: 0}
  m_Name: TapToStart
  serializedVersion: 4
  m_AnimationType: 2
  m_Compressed: 0
  m_UseHighQualityCurve: 1
  m_RotationCurves: []
  m_CompressedRotationCurves: []
  m_PositionCurves: []
  m_ScaleCurves: []
  m_FloatCurves: []
  m_PPtrCurves:
  - curve:
    - time: 0
      value: {fileID: 21300000, guid: 48bdc7b0e0a93524d981e54d9fba885d, type: 3}
    - time: .055555556
      value: {fileID: 21300000, guid: ea323ae25d5fba9499b1db02f23202eb, type: 3}
    - time: .111111112
      value: {fileID: 21300000, guid: 6988d14b1f2e2014eaa8289d11dcfef0, type: 3}
    - time: .166666672
      value: {fileID: 21300000, guid: 896418b4b3a888a4ea4ccbba58651b88, type: 3}
    - time: .222222224
      value: {fileID: 21300000, guid: 54142d92ffb89634ca168dc0cf988d47, type: 3}
    - time: .277777791
      value: {fileID: 21300000, guid: 9951d6e8af9910548bf26b6b430d4584, type: 3}
    - time: .333333343
      value: {fileID: 21300000, guid: 9efedc4d15d7f4546967b2d04d13fbba, type: 3}
    - time: .388888896
      value: {fileID: 21300000, guid: 5160b1f6c04c4fe45a8e22079d9660e7, type: 3}
    - time: .444444448
      value: {fileID: 21300000, guid: 34cfc9f61e5ac3e49a2b579001efdce7, type: 3}
    - time: .5
      value: {fileID: 21300000, guid: fff065f20196c934988c864329e9ed63, type: 3}
    - time: .555555582
      value: {fileID: 21300000, guid: 34cfc9f61e5ac3e49a2b579001efdce7, type: 3}
    - time: .611111104
      value: {fileID: 21300000, guid: 5160b1f6c04c4fe45a8e22079d9660e7, type: 3}
    - time: .666666687
      value: {fileID: 21300000, guid: 9efedc4d15d7f4546967b2d04d13fbba, type: 3}
    - time: .722222209
      value: {fileID: 21300000, guid: 9951d6e8af9910548bf26b6b430d4584, type: 3}
    - time: .777777791
      value: {fileID: 21300000, guid: 54142d92ffb89634ca168dc0cf988d47, type: 3}
    - time: .833333313
      value: {fileID: 21300000, guid: 896418b4b3a888a4ea4ccbba58651b88, type: 3}
    - time: .888888896
      value: {fileID: 21300000, guid: 6988d14b1f2e2014eaa8289d11dcfef0, type: 3}
    - time: .944444418
      value: {fileID: 21300000, guid: ea323ae25d5fba9499b1db02f23202eb, type: 3}
    - time: 1
      value: {fileID: 21300000, guid: ea323ae25d5fba9499b1db02f23202eb, type: 3}
    attribute: m_Sprite
    path: 
    classID: 212
    script: {fileID: 0}
  m_SampleRate: 18
  m_WrapMode: 0
  m_Bounds:
    m_Center: {x: 0, y: 0, z: 0}
    m_Extent: {x: 0, y: 0, z: 0}
  m_AnimationClipSettings:
    serializedVersion: 2
    m_StartTime: 0
    m_StopTime: 1.05555558
    m_OrientationOffsetY: 0
    m_Level: 0
    m_CycleOffset: 0
    m_LoopTime: 1
    m_LoopBlend: 0
    m_LoopBlendOrientation: 0
    m_LoopBlendPositionY: 0
    m_LoopBlendPositionXZ: 0
    m_KeepOriginalOrientation: 0
    m_KeepOriginalPositionY: 1
    m_KeepOriginalPositionXZ: 0
    m_HeightFromFeet: 0
    m_Mirror: 0
  m_EditorCurves: []
  m_EulerEditorCurves: []
  m_Events: []
